// Jest Snapshot v1, https://goo.gl/fbAQLP

exports[`ToDoItem component test should render a placeholder 1`] = `
<MemoryRouter
  keyLength={0}
>
  <Router
    history={
      Object {
        "action": "POP",
        "block": [Function],
        "canGo": [Function],
        "createHref": [Function],
        "entries": Array [
          Object {
            "hash": "",
            "pathname": "/",
            "search": "",
            "state": undefined,
          },
        ],
        "go": [Function],
        "goBack": [Function],
        "goForward": [Function],
        "index": 0,
        "length": 1,
        "listen": [Function],
        "location": Object {
          "hash": "",
          "pathname": "/",
          "search": "",
          "state": undefined,
        },
        "push": [Function],
        "replace": [Function],
      }
    }
  >
    <ToDoItem
      listId="1"
      listItem={
        Object {
          "completed": true,
          "description": "description",
          "id": "2",
          "order": 0,
        }
      }
      onMoveDown={[MockFunction]}
      onMoveUp={[MockFunction]}
      onToggle={[MockFunction]}
    >
      <tr
        className="ui attached segment positive"
      >
        <td>
          <CheckBox
            completed={true}
            onChange={[Function]}
          >
            <div
              className="ui checkbox"
            >
              <input
                checked={true}
                name="todo"
                onChange={[Function]}
                type="checkbox"
                value={true}
              />
              <label />
            </div>
          </CheckBox>
        </td>
        <td>
          <h5
            style={
              Object {
                "textDecoration": "line-through",
              }
            }
          >
            description
          </h5>
        </td>
        <td
          className="right floated right aligned content"
        >
          <button
            className="ui basic icon button up-button"
            onClick={[Function]}
          >
            <i
              className="angle double up icon"
            />
          </button>
          <button
            className="ui basic icon button down-button"
            onClick={[Function]}
          >
            <i
              className="angle double down icon"
            />
          </button>
          <Link
            className="ui button primary"
            to="/list/1/edit/2"
          >
            <a
              className="ui button primary"
              href="/list/1/edit/2"
              onClick={[Function]}
            >
              Edit
            </a>
          </Link>
          <Link
            className="ui button negative"
            to="/list/1/delete/2"
          >
            <a
              className="ui button negative"
              href="/list/1/delete/2"
              onClick={[Function]}
            >
              Delete
            </a>
          </Link>
        </td>
      </tr>
    </ToDoItem>
  </Router>
</MemoryRouter>
`;
